<mxfile host="app.diagrams.net" modified="2023-01-26T11:07:58.919Z" agent="5.0 (Windows NT 10.0; Win64; x64) AppleWebKit/537.36 (KHTML, like Gecko) Chrome/106.0.0.0 YaBrowser/22.11.5.715 Yowser/2.5 Safari/537.36" etag="XOo60XH7OUNmMIfHJAxG" version="20.8.10" type="gitlab" pages="2">
  <diagram id="o6InwoL-0gXl8d7mMe8v" name="DynamicSystems">
    <mxGraphModel dx="2770" dy="3061" grid="1" gridSize="10" guides="1" tooltips="1" connect="1" arrows="1" fold="1" page="1" pageScale="1" pageWidth="827" pageHeight="1169" math="0" shadow="0">
      <root>
        <mxCell id="0" />
        <mxCell id="1" parent="0" />
        <mxCell id="A7Pl7_H6EMgGXGqB_MyO-21" value="Imger" style="shape=module;align=left;spacingLeft=20;align=center;verticalAlign=top;" vertex="1" parent="1">
          <mxGeometry x="-970" y="-1240" width="730" height="636" as="geometry" />
        </mxCell>
        <mxCell id="4kh-KtR7aPHPuSV9MTnz-72" value="DynamicSystems" style="shape=module;align=left;spacingLeft=20;align=center;verticalAlign=top;sketch=1;" parent="1" vertex="1">
          <mxGeometry x="270" y="360" width="490" height="390" as="geometry" />
        </mxCell>
        <mxCell id="4kh-KtR7aPHPuSV9MTnz-66" value="Calculation" style="shape=module;align=left;spacingLeft=20;align=center;verticalAlign=top;sketch=1;" parent="1" vertex="1">
          <mxGeometry x="-450" y="360" width="690" height="390" as="geometry" />
        </mxCell>
        <mxCell id="4kh-KtR7aPHPuSV9MTnz-65" value="MapDynamicSysytem" style="shape=module;align=left;spacingLeft=20;align=center;verticalAlign=top;sketch=1;curveFitting=1;jiggle=2;" parent="1" vertex="1">
          <mxGeometry x="-1490" y="-560" width="2250" height="880" as="geometry" />
        </mxCell>
        <mxCell id="4kh-KtR7aPHPuSV9MTnz-1" value="DynamicSysytem" style="swimlane;fontStyle=1;align=center;verticalAlign=top;childLayout=stackLayout;horizontal=1;startSize=26;horizontalStack=0;resizeParent=1;resizeParentMax=0;resizeLast=0;collapsible=1;marginBottom=0;sketch=1;curveFitting=1;jiggle=2;fillColor=#fff2cc;strokeColor=#d6b656;" parent="1" vertex="1">
          <mxGeometry x="320" y="80" width="160" height="138" as="geometry" />
        </mxCell>
        <mxCell id="4kh-KtR7aPHPuSV9MTnz-2" value="+ Dimension : number" style="text;strokeColor=none;fillColor=none;align=left;verticalAlign=top;spacingLeft=4;spacingRight=4;overflow=hidden;rotatable=0;points=[[0,0.5],[1,0.5]];portConstraint=eastwest;sketch=1;curveFitting=1;jiggle=2;" parent="4kh-KtR7aPHPuSV9MTnz-1" vertex="1">
          <mxGeometry y="26" width="160" height="26" as="geometry" />
        </mxCell>
        <mxCell id="4kh-KtR7aPHPuSV9MTnz-5" value="+ Name : number" style="text;strokeColor=none;fillColor=none;align=left;verticalAlign=top;spacingLeft=4;spacingRight=4;overflow=hidden;rotatable=0;points=[[0,0.5],[1,0.5]];portConstraint=eastwest;sketch=1;curveFitting=1;jiggle=2;" parent="4kh-KtR7aPHPuSV9MTnz-1" vertex="1">
          <mxGeometry y="52" width="160" height="26" as="geometry" />
        </mxCell>
        <mxCell id="4kh-KtR7aPHPuSV9MTnz-13" value="+ Parametrs: List&lt;Parametr&gt;" style="text;strokeColor=none;fillColor=none;align=left;verticalAlign=top;spacingLeft=4;spacingRight=4;overflow=hidden;rotatable=0;points=[[0,0.5],[1,0.5]];portConstraint=eastwest;sketch=1;curveFitting=1;jiggle=2;" parent="4kh-KtR7aPHPuSV9MTnz-1" vertex="1">
          <mxGeometry y="78" width="160" height="26" as="geometry" />
        </mxCell>
        <mxCell id="4kh-KtR7aPHPuSV9MTnz-3" value="" style="line;strokeWidth=1;fillColor=none;align=left;verticalAlign=middle;spacingTop=-1;spacingLeft=3;spacingRight=3;rotatable=0;labelPosition=right;points=[];portConstraint=eastwest;strokeColor=inherit;sketch=1;curveFitting=1;jiggle=2;" parent="4kh-KtR7aPHPuSV9MTnz-1" vertex="1">
          <mxGeometry y="104" width="160" height="8" as="geometry" />
        </mxCell>
        <mxCell id="4kh-KtR7aPHPuSV9MTnz-4" value="+ GetNext(vector: Vector3)" style="text;strokeColor=none;fillColor=none;align=left;verticalAlign=top;spacingLeft=4;spacingRight=4;overflow=hidden;rotatable=0;points=[[0,0.5],[1,0.5]];portConstraint=eastwest;sketch=1;curveFitting=1;jiggle=2;" parent="4kh-KtR7aPHPuSV9MTnz-1" vertex="1">
          <mxGeometry y="112" width="160" height="26" as="geometry" />
        </mxCell>
        <mxCell id="4kh-KtR7aPHPuSV9MTnz-7" value="Parametr" style="swimlane;fontStyle=1;align=center;verticalAlign=top;childLayout=stackLayout;horizontal=1;startSize=26;horizontalStack=0;resizeParent=1;resizeParentMax=0;resizeLast=0;collapsible=1;marginBottom=0;sketch=1;fillColor=#e1d5e7;strokeColor=#9673a6;curveFitting=1;jiggle=2;" parent="1" vertex="1">
          <mxGeometry x="560" y="200" width="160" height="86" as="geometry" />
        </mxCell>
        <mxCell id="4kh-KtR7aPHPuSV9MTnz-8" value="+ Name: string" style="text;strokeColor=none;fillColor=none;align=left;verticalAlign=top;spacingLeft=4;spacingRight=4;overflow=hidden;rotatable=0;points=[[0,0.5],[1,0.5]];portConstraint=eastwest;sketch=1;curveFitting=1;jiggle=2;" parent="4kh-KtR7aPHPuSV9MTnz-7" vertex="1">
          <mxGeometry y="26" width="160" height="26" as="geometry" />
        </mxCell>
        <mxCell id="4kh-KtR7aPHPuSV9MTnz-11" value="+ Value: number" style="text;strokeColor=none;fillColor=none;align=left;verticalAlign=top;spacingLeft=4;spacingRight=4;overflow=hidden;rotatable=0;points=[[0,0.5],[1,0.5]];portConstraint=eastwest;sketch=1;curveFitting=1;jiggle=2;" parent="4kh-KtR7aPHPuSV9MTnz-7" vertex="1">
          <mxGeometry y="52" width="160" height="26" as="geometry" />
        </mxCell>
        <mxCell id="4kh-KtR7aPHPuSV9MTnz-9" value="" style="line;strokeWidth=1;fillColor=none;align=left;verticalAlign=middle;spacingTop=-1;spacingLeft=3;spacingRight=3;rotatable=0;labelPosition=right;points=[];portConstraint=eastwest;strokeColor=inherit;sketch=1;curveFitting=1;jiggle=2;" parent="4kh-KtR7aPHPuSV9MTnz-7" vertex="1">
          <mxGeometry y="78" width="160" height="8" as="geometry" />
        </mxCell>
        <mxCell id="4kh-KtR7aPHPuSV9MTnz-14" value="" style="endArrow=open;html=1;endSize=12;startArrow=diamondThin;startSize=14;startFill=1;edgeStyle=orthogonalEdgeStyle;align=left;verticalAlign=bottom;rounded=0;exitX=1;exitY=0.5;exitDx=0;exitDy=0;entryX=0.5;entryY=0;entryDx=0;entryDy=0;sketch=1;curveFitting=1;jiggle=2;" parent="1" source="4kh-KtR7aPHPuSV9MTnz-13" target="4kh-KtR7aPHPuSV9MTnz-7" edge="1">
          <mxGeometry x="-1" y="54" relative="1" as="geometry">
            <mxPoint x="160" y="570" as="sourcePoint" />
            <mxPoint x="320" y="570" as="targetPoint" />
            <mxPoint x="-20" y="4" as="offset" />
          </mxGeometry>
        </mxCell>
        <mxCell id="4kh-KtR7aPHPuSV9MTnz-15" value="LorenzDynamicSystem" style="swimlane;fontStyle=1;align=center;verticalAlign=top;childLayout=stackLayout;horizontal=1;startSize=26;horizontalStack=0;resizeParent=1;resizeParentMax=0;resizeLast=0;collapsible=1;marginBottom=0;sketch=1;fillColor=#e1d5e7;strokeColor=#9673a6;curveFitting=1;jiggle=2;" parent="1" vertex="1">
          <mxGeometry x="320" y="600" width="160" height="86" as="geometry" />
        </mxCell>
        <mxCell id="4kh-KtR7aPHPuSV9MTnz-16" value="+ field: type" style="text;strokeColor=none;fillColor=none;align=left;verticalAlign=top;spacingLeft=4;spacingRight=4;overflow=hidden;rotatable=0;points=[[0,0.5],[1,0.5]];portConstraint=eastwest;sketch=1;curveFitting=1;jiggle=2;" parent="4kh-KtR7aPHPuSV9MTnz-15" vertex="1">
          <mxGeometry y="26" width="160" height="26" as="geometry" />
        </mxCell>
        <mxCell id="4kh-KtR7aPHPuSV9MTnz-17" value="" style="line;strokeWidth=1;fillColor=none;align=left;verticalAlign=middle;spacingTop=-1;spacingLeft=3;spacingRight=3;rotatable=0;labelPosition=right;points=[];portConstraint=eastwest;strokeColor=inherit;sketch=1;curveFitting=1;jiggle=2;" parent="4kh-KtR7aPHPuSV9MTnz-15" vertex="1">
          <mxGeometry y="52" width="160" height="8" as="geometry" />
        </mxCell>
        <mxCell id="4kh-KtR7aPHPuSV9MTnz-18" value="+ GetNext() =&gt; Vector3" style="text;strokeColor=none;fillColor=none;align=left;verticalAlign=top;spacingLeft=4;spacingRight=4;overflow=hidden;rotatable=0;points=[[0,0.5],[1,0.5]];portConstraint=eastwest;sketch=1;curveFitting=1;jiggle=2;" parent="4kh-KtR7aPHPuSV9MTnz-15" vertex="1">
          <mxGeometry y="60" width="160" height="26" as="geometry" />
        </mxCell>
        <mxCell id="4kh-KtR7aPHPuSV9MTnz-19" value="" style="endArrow=block;endSize=16;endFill=0;html=1;rounded=0;exitX=0.5;exitY=0;exitDx=0;exitDy=0;sketch=1;curveFitting=1;jiggle=2;" parent="1" source="4kh-KtR7aPHPuSV9MTnz-15" target="4kh-KtR7aPHPuSV9MTnz-1" edge="1">
          <mxGeometry x="0.25" y="100" width="160" relative="1" as="geometry">
            <mxPoint x="100" y="640" as="sourcePoint" />
            <mxPoint x="260" y="640" as="targetPoint" />
            <mxPoint as="offset" />
          </mxGeometry>
        </mxCell>
        <mxCell id="4kh-KtR7aPHPuSV9MTnz-20" value="MapDb" style="swimlane;fontStyle=1;align=center;verticalAlign=top;childLayout=stackLayout;horizontal=1;startSize=26;horizontalStack=0;resizeParent=1;resizeParentMax=0;resizeLast=0;collapsible=1;marginBottom=0;sketch=1;fillColor=#e1d5e7;strokeColor=#9673a6;curveFitting=1;jiggle=2;" parent="1" vertex="1">
          <mxGeometry x="-160" y="-160" width="160" height="164" as="geometry" />
        </mxCell>
        <mxCell id="4kh-KtR7aPHPuSV9MTnz-35" value="+ CalculationDS: CalculationDy" style="text;strokeColor=none;fillColor=none;align=left;verticalAlign=top;spacingLeft=4;spacingRight=4;overflow=hidden;rotatable=0;points=[[0,0.5],[1,0.5]];portConstraint=eastwest;sketch=1;curveFitting=1;jiggle=2;" parent="4kh-KtR7aPHPuSV9MTnz-20" vertex="1">
          <mxGeometry y="26" width="160" height="26" as="geometry" />
        </mxCell>
        <mxCell id="4kh-KtR7aPHPuSV9MTnz-22" value="" style="line;strokeWidth=1;fillColor=none;align=left;verticalAlign=middle;spacingTop=-1;spacingLeft=3;spacingRight=3;rotatable=0;labelPosition=right;points=[];portConstraint=eastwest;strokeColor=inherit;sketch=1;curveFitting=1;jiggle=2;" parent="4kh-KtR7aPHPuSV9MTnz-20" vertex="1">
          <mxGeometry y="52" width="160" height="8" as="geometry" />
        </mxCell>
        <mxCell id="4kh-KtR7aPHPuSV9MTnz-23" value="+ CreateMap() =&gt; void" style="text;strokeColor=none;fillColor=none;align=left;verticalAlign=top;spacingLeft=4;spacingRight=4;overflow=hidden;rotatable=0;points=[[0,0.5],[1,0.5]];portConstraint=eastwest;sketch=1;curveFitting=1;jiggle=2;" parent="4kh-KtR7aPHPuSV9MTnz-20" vertex="1">
          <mxGeometry y="60" width="160" height="26" as="geometry" />
        </mxCell>
        <mxCell id="4kh-KtR7aPHPuSV9MTnz-48" value="+ Create()" style="text;strokeColor=none;fillColor=none;align=left;verticalAlign=top;spacingLeft=4;spacingRight=4;overflow=hidden;rotatable=0;points=[[0,0.5],[1,0.5]];portConstraint=eastwest;sketch=1;curveFitting=1;jiggle=2;" parent="4kh-KtR7aPHPuSV9MTnz-20" vertex="1">
          <mxGeometry y="86" width="160" height="26" as="geometry" />
        </mxCell>
        <mxCell id="4kh-KtR7aPHPuSV9MTnz-64" value="# CreateDB() : DbContext" style="text;strokeColor=none;fillColor=none;align=left;verticalAlign=top;spacingLeft=4;spacingRight=4;overflow=hidden;rotatable=0;points=[[0,0.5],[1,0.5]];portConstraint=eastwest;sketch=1;curveFitting=1;jiggle=2;" parent="4kh-KtR7aPHPuSV9MTnz-20" vertex="1">
          <mxGeometry y="112" width="160" height="26" as="geometry" />
        </mxCell>
        <mxCell id="qkvboqOC8ZkTmOwASB4h-10" value="+ GetMatrix() : Color[,]" style="text;strokeColor=none;fillColor=none;align=left;verticalAlign=top;spacingLeft=4;spacingRight=4;overflow=hidden;rotatable=0;points=[[0,0.5],[1,0.5]];portConstraint=eastwest;sketch=1;curveFitting=1;jiggle=2;" vertex="1" parent="4kh-KtR7aPHPuSV9MTnz-20">
          <mxGeometry y="138" width="160" height="26" as="geometry" />
        </mxCell>
        <mxCell id="4kh-KtR7aPHPuSV9MTnz-28" value="Calculation&#xa;DynamicSystems&lt;T&gt;" style="swimlane;fontStyle=1;align=center;verticalAlign=top;childLayout=stackLayout;horizontal=1;startSize=40;horizontalStack=0;resizeParent=1;resizeParentMax=0;resizeLast=0;collapsible=1;marginBottom=0;sketch=1;fillColor=#fff2cc;strokeColor=#d6b656;curveFitting=1;jiggle=2;" parent="1" vertex="1">
          <mxGeometry x="80" width="160" height="114" as="geometry" />
        </mxCell>
        <mxCell id="4kh-KtR7aPHPuSV9MTnz-29" value="+ dSystems: DynamicSystem" style="text;strokeColor=none;fillColor=none;align=left;verticalAlign=top;spacingLeft=4;spacingRight=4;overflow=hidden;rotatable=0;points=[[0,0.5],[1,0.5]];portConstraint=eastwest;sketch=1;curveFitting=1;jiggle=2;" parent="4kh-KtR7aPHPuSV9MTnz-28" vertex="1">
          <mxGeometry y="40" width="160" height="26" as="geometry" />
        </mxCell>
        <mxCell id="4kh-KtR7aPHPuSV9MTnz-30" value="" style="line;strokeWidth=1;fillColor=none;align=left;verticalAlign=middle;spacingTop=-1;spacingLeft=3;spacingRight=3;rotatable=0;labelPosition=right;points=[];portConstraint=eastwest;strokeColor=inherit;sketch=1;curveFitting=1;jiggle=2;" parent="4kh-KtR7aPHPuSV9MTnz-28" vertex="1">
          <mxGeometry y="66" width="160" height="8" as="geometry" />
        </mxCell>
        <mxCell id="4kh-KtR7aPHPuSV9MTnz-31" value="+ GetValue&#xa;(Parametr1, Parametr2)" style="text;strokeColor=none;fillColor=none;align=left;verticalAlign=top;spacingLeft=4;spacingRight=4;overflow=hidden;rotatable=0;points=[[0,0.5],[1,0.5]];portConstraint=eastwest;sketch=1;curveFitting=1;jiggle=2;" parent="4kh-KtR7aPHPuSV9MTnz-28" vertex="1">
          <mxGeometry y="74" width="160" height="40" as="geometry" />
        </mxCell>
        <mxCell id="4kh-KtR7aPHPuSV9MTnz-33" value="" style="endArrow=open;html=1;endSize=12;startArrow=diamondThin;startSize=14;startFill=1;edgeStyle=orthogonalEdgeStyle;align=left;verticalAlign=bottom;rounded=0;entryX=0.5;entryY=0;entryDx=0;entryDy=0;sketch=1;curveFitting=1;jiggle=2;" parent="1" source="4kh-KtR7aPHPuSV9MTnz-35" target="4kh-KtR7aPHPuSV9MTnz-28" edge="1">
          <mxGeometry x="-1" y="89" relative="1" as="geometry">
            <mxPoint x="-20" y="330" as="sourcePoint" />
            <mxPoint x="130" y="560" as="targetPoint" />
            <mxPoint x="-40" y="9" as="offset" />
          </mxGeometry>
        </mxCell>
        <mxCell id="4kh-KtR7aPHPuSV9MTnz-34" value="" style="endArrow=open;html=1;endSize=12;startArrow=diamondThin;startSize=14;startFill=1;edgeStyle=orthogonalEdgeStyle;align=left;verticalAlign=bottom;rounded=0;entryX=0.5;entryY=0;entryDx=0;entryDy=0;sketch=1;curveFitting=1;jiggle=2;" parent="1" source="4kh-KtR7aPHPuSV9MTnz-29" target="4kh-KtR7aPHPuSV9MTnz-1" edge="1">
          <mxGeometry x="-1" y="89" relative="1" as="geometry">
            <mxPoint x="110" y="240" as="sourcePoint" />
            <mxPoint x="270" y="240" as="targetPoint" />
            <mxPoint x="-40" y="9" as="offset" />
          </mxGeometry>
        </mxCell>
        <mxCell id="4kh-KtR7aPHPuSV9MTnz-36" value="" style="endArrow=open;html=1;endSize=12;startArrow=diamondThin;startSize=14;startFill=1;edgeStyle=orthogonalEdgeStyle;align=left;verticalAlign=bottom;rounded=0;sketch=1;curveFitting=1;jiggle=2;" parent="1" source="4kh-KtR7aPHPuSV9MTnz-52" target="4kh-KtR7aPHPuSV9MTnz-7" edge="1">
          <mxGeometry x="-1" y="89" relative="1" as="geometry">
            <mxPoint x="420" y="-100" as="sourcePoint" />
            <mxPoint x="580" y="-100" as="targetPoint" />
            <mxPoint x="-40" y="9" as="offset" />
          </mxGeometry>
        </mxCell>
        <mxCell id="4kh-KtR7aPHPuSV9MTnz-37" value="" style="endArrow=open;html=1;endSize=12;startArrow=diamondThin;startSize=14;startFill=1;edgeStyle=orthogonalEdgeStyle;align=left;verticalAlign=bottom;rounded=0;entryX=0.5;entryY=0;entryDx=0;entryDy=0;exitX=1;exitY=0.5;exitDx=0;exitDy=0;sketch=1;curveFitting=1;jiggle=2;" parent="1" source="4kh-KtR7aPHPuSV9MTnz-49" target="4kh-KtR7aPHPuSV9MTnz-7" edge="1">
          <mxGeometry x="-1" y="89" relative="1" as="geometry">
            <mxPoint x="414" y="-24" as="sourcePoint" />
            <mxPoint x="574" y="-24" as="targetPoint" />
            <mxPoint x="-40" y="9" as="offset" />
          </mxGeometry>
        </mxCell>
        <mxCell id="4kh-KtR7aPHPuSV9MTnz-38" value="LyapynovCalculation&#xa;DynamicSystems&lt;double&gt;" style="swimlane;fontStyle=1;align=center;verticalAlign=top;childLayout=stackLayout;horizontal=1;startSize=38;horizontalStack=0;resizeParent=1;resizeParentMax=0;resizeLast=0;collapsible=1;marginBottom=0;sketch=1;fillColor=#e1d5e7;strokeColor=#9673a6;curveFitting=1;jiggle=2;" parent="1" vertex="1">
          <mxGeometry x="40" y="600" width="160" height="98" as="geometry" />
        </mxCell>
        <mxCell id="4kh-KtR7aPHPuSV9MTnz-39" value="+ field: type" style="text;strokeColor=none;fillColor=none;align=left;verticalAlign=top;spacingLeft=4;spacingRight=4;overflow=hidden;rotatable=0;points=[[0,0.5],[1,0.5]];portConstraint=eastwest;sketch=1;curveFitting=1;jiggle=2;" parent="4kh-KtR7aPHPuSV9MTnz-38" vertex="1">
          <mxGeometry y="38" width="160" height="26" as="geometry" />
        </mxCell>
        <mxCell id="4kh-KtR7aPHPuSV9MTnz-40" value="" style="line;strokeWidth=1;fillColor=none;align=left;verticalAlign=middle;spacingTop=-1;spacingLeft=3;spacingRight=3;rotatable=0;labelPosition=right;points=[];portConstraint=eastwest;strokeColor=inherit;sketch=1;curveFitting=1;jiggle=2;" parent="4kh-KtR7aPHPuSV9MTnz-38" vertex="1">
          <mxGeometry y="64" width="160" height="8" as="geometry" />
        </mxCell>
        <mxCell id="4kh-KtR7aPHPuSV9MTnz-41" value="+ GetValue() =&gt; &lt;T&gt;" style="text;strokeColor=none;fillColor=none;align=left;verticalAlign=top;spacingLeft=4;spacingRight=4;overflow=hidden;rotatable=0;points=[[0,0.5],[1,0.5]];portConstraint=eastwest;sketch=1;curveFitting=1;jiggle=2;" parent="4kh-KtR7aPHPuSV9MTnz-38" vertex="1">
          <mxGeometry y="72" width="160" height="26" as="geometry" />
        </mxCell>
        <mxCell id="4kh-KtR7aPHPuSV9MTnz-42" value="" style="endArrow=block;endSize=16;endFill=0;html=1;rounded=0;exitX=0.5;exitY=0;exitDx=0;exitDy=0;sketch=1;curveFitting=1;jiggle=2;" parent="1" source="4kh-KtR7aPHPuSV9MTnz-38" target="4kh-KtR7aPHPuSV9MTnz-28" edge="1">
          <mxGeometry x="0.25" y="100" width="160" relative="1" as="geometry">
            <mxPoint x="270" y="406" as="sourcePoint" />
            <mxPoint x="270" y="304" as="targetPoint" />
            <mxPoint as="offset" />
          </mxGeometry>
        </mxCell>
        <mxCell id="4kh-KtR7aPHPuSV9MTnz-43" value="Map" style="swimlane;fontStyle=0;childLayout=stackLayout;horizontal=1;startSize=26;fillColor=#dae8fc;horizontalStack=0;resizeParent=1;resizeParentMax=0;resizeLast=0;collapsible=1;marginBottom=0;sketch=1;strokeColor=#6c8ebf;curveFitting=1;jiggle=2;" parent="1" vertex="1">
          <mxGeometry x="-160" y="-520" width="160" height="234" as="geometry" />
        </mxCell>
        <mxCell id="4kh-KtR7aPHPuSV9MTnz-44" value="height : number" style="text;strokeColor=none;fillColor=none;align=left;verticalAlign=top;spacingLeft=4;spacingRight=4;overflow=hidden;rotatable=0;points=[[0,0.5],[1,0.5]];portConstraint=eastwest;sketch=1;curveFitting=1;jiggle=2;" parent="4kh-KtR7aPHPuSV9MTnz-43" vertex="1">
          <mxGeometry y="26" width="160" height="26" as="geometry" />
        </mxCell>
        <mxCell id="4kh-KtR7aPHPuSV9MTnz-45" value="width: number" style="text;strokeColor=none;fillColor=none;align=left;verticalAlign=top;spacingLeft=4;spacingRight=4;overflow=hidden;rotatable=0;points=[[0,0.5],[1,0.5]];portConstraint=eastwest;sketch=1;curveFitting=1;jiggle=2;" parent="4kh-KtR7aPHPuSV9MTnz-43" vertex="1">
          <mxGeometry y="52" width="160" height="26" as="geometry" />
        </mxCell>
        <mxCell id="4kh-KtR7aPHPuSV9MTnz-46" value="DSystem: string" style="text;strokeColor=none;fillColor=none;align=left;verticalAlign=top;spacingLeft=4;spacingRight=4;overflow=hidden;rotatable=0;points=[[0,0.5],[1,0.5]];portConstraint=eastwest;sketch=1;curveFitting=1;jiggle=2;" parent="4kh-KtR7aPHPuSV9MTnz-43" vertex="1">
          <mxGeometry y="78" width="160" height="26" as="geometry" />
        </mxCell>
        <mxCell id="4kh-KtR7aPHPuSV9MTnz-47" value="TypeMap: string" style="text;strokeColor=none;fillColor=none;align=left;verticalAlign=top;spacingLeft=4;spacingRight=4;overflow=hidden;rotatable=0;points=[[0,0.5],[1,0.5]];portConstraint=eastwest;sketch=1;curveFitting=1;jiggle=2;" parent="4kh-KtR7aPHPuSV9MTnz-43" vertex="1">
          <mxGeometry y="104" width="160" height="26" as="geometry" />
        </mxCell>
        <mxCell id="4kh-KtR7aPHPuSV9MTnz-52" value="HeightStart" style="text;strokeColor=none;fillColor=none;align=left;verticalAlign=top;spacingLeft=4;spacingRight=4;overflow=hidden;rotatable=0;points=[[0,0.5],[1,0.5]];portConstraint=eastwest;sketch=1;curveFitting=1;jiggle=2;" parent="4kh-KtR7aPHPuSV9MTnz-43" vertex="1">
          <mxGeometry y="130" width="160" height="26" as="geometry" />
        </mxCell>
        <mxCell id="4kh-KtR7aPHPuSV9MTnz-51" value="HeightStop" style="text;strokeColor=none;fillColor=none;align=left;verticalAlign=top;spacingLeft=4;spacingRight=4;overflow=hidden;rotatable=0;points=[[0,0.5],[1,0.5]];portConstraint=eastwest;sketch=1;curveFitting=1;jiggle=2;" parent="4kh-KtR7aPHPuSV9MTnz-43" vertex="1">
          <mxGeometry y="156" width="160" height="26" as="geometry" />
        </mxCell>
        <mxCell id="4kh-KtR7aPHPuSV9MTnz-50" value="WidthStart" style="text;strokeColor=none;fillColor=none;align=left;verticalAlign=top;spacingLeft=4;spacingRight=4;overflow=hidden;rotatable=0;points=[[0,0.5],[1,0.5]];portConstraint=eastwest;sketch=1;curveFitting=1;jiggle=2;" parent="4kh-KtR7aPHPuSV9MTnz-43" vertex="1">
          <mxGeometry y="182" width="160" height="26" as="geometry" />
        </mxCell>
        <mxCell id="4kh-KtR7aPHPuSV9MTnz-49" value="WidthStop" style="text;strokeColor=none;fillColor=none;align=left;verticalAlign=top;spacingLeft=4;spacingRight=4;overflow=hidden;rotatable=0;points=[[0,0.5],[1,0.5]];portConstraint=eastwest;sketch=1;curveFitting=1;jiggle=2;" parent="4kh-KtR7aPHPuSV9MTnz-43" vertex="1">
          <mxGeometry y="208" width="160" height="26" as="geometry" />
        </mxCell>
        <mxCell id="4kh-KtR7aPHPuSV9MTnz-53" value="" style="endArrow=block;endSize=16;endFill=0;html=1;rounded=0;exitX=0.5;exitY=0;exitDx=0;exitDy=0;sketch=1;curveFitting=1;jiggle=2;" parent="1" source="4kh-KtR7aPHPuSV9MTnz-20" target="4kh-KtR7aPHPuSV9MTnz-43" edge="1">
          <mxGeometry x="0.25" y="100" width="160" relative="1" as="geometry">
            <mxPoint x="140" y="-154" as="sourcePoint" />
            <mxPoint x="140" y="-240" as="targetPoint" />
            <mxPoint as="offset" />
          </mxGeometry>
        </mxCell>
        <mxCell id="4kh-KtR7aPHPuSV9MTnz-54" value="" style="endArrow=open;html=1;endSize=12;startArrow=diamondThin;startSize=14;startFill=1;edgeStyle=orthogonalEdgeStyle;align=left;verticalAlign=bottom;rounded=0;entryX=0.5;entryY=0;entryDx=0;entryDy=0;sketch=1;curveFitting=1;jiggle=2;" parent="1" source="4kh-KtR7aPHPuSV9MTnz-51" target="4kh-KtR7aPHPuSV9MTnz-7" edge="1">
          <mxGeometry x="-1" y="89" relative="1" as="geometry">
            <mxPoint x="10" y="-369" as="sourcePoint" />
            <mxPoint x="650" y="210" as="targetPoint" />
            <mxPoint x="-40" y="9" as="offset" />
          </mxGeometry>
        </mxCell>
        <mxCell id="4kh-KtR7aPHPuSV9MTnz-55" value="" style="endArrow=open;html=1;endSize=12;startArrow=diamondThin;startSize=14;startFill=1;edgeStyle=orthogonalEdgeStyle;align=left;verticalAlign=bottom;rounded=0;entryX=0.5;entryY=0;entryDx=0;entryDy=0;exitX=1;exitY=0.5;exitDx=0;exitDy=0;sketch=1;curveFitting=1;jiggle=2;" parent="1" source="4kh-KtR7aPHPuSV9MTnz-50" target="4kh-KtR7aPHPuSV9MTnz-7" edge="1">
          <mxGeometry x="-1" y="89" relative="1" as="geometry">
            <mxPoint x="20" y="-359" as="sourcePoint" />
            <mxPoint x="660" y="220" as="targetPoint" />
            <mxPoint x="-40" y="9" as="offset" />
          </mxGeometry>
        </mxCell>
        <mxCell id="4kh-KtR7aPHPuSV9MTnz-56" value="PointValue" style="swimlane;fontStyle=0;childLayout=stackLayout;horizontal=1;startSize=26;fillColor=#dae8fc;horizontalStack=0;resizeParent=1;resizeParentMax=0;resizeLast=0;collapsible=1;marginBottom=0;sketch=1;strokeColor=#6c8ebf;curveFitting=1;jiggle=2;" parent="1" vertex="1">
          <mxGeometry x="-400" y="-280" width="160" height="104" as="geometry" />
        </mxCell>
        <mxCell id="4kh-KtR7aPHPuSV9MTnz-57" value="HeightValue" style="text;strokeColor=none;fillColor=none;align=left;verticalAlign=top;spacingLeft=4;spacingRight=4;overflow=hidden;rotatable=0;points=[[0,0.5],[1,0.5]];portConstraint=eastwest;sketch=1;curveFitting=1;jiggle=2;" parent="4kh-KtR7aPHPuSV9MTnz-56" vertex="1">
          <mxGeometry y="26" width="160" height="26" as="geometry" />
        </mxCell>
        <mxCell id="4kh-KtR7aPHPuSV9MTnz-58" value="WeightValue" style="text;strokeColor=none;fillColor=none;align=left;verticalAlign=top;spacingLeft=4;spacingRight=4;overflow=hidden;rotatable=0;points=[[0,0.5],[1,0.5]];portConstraint=eastwest;sketch=1;curveFitting=1;jiggle=2;" parent="4kh-KtR7aPHPuSV9MTnz-56" vertex="1">
          <mxGeometry y="52" width="160" height="26" as="geometry" />
        </mxCell>
        <mxCell id="4kh-KtR7aPHPuSV9MTnz-59" value="Value" style="text;strokeColor=none;fillColor=none;align=left;verticalAlign=top;spacingLeft=4;spacingRight=4;overflow=hidden;rotatable=0;points=[[0,0.5],[1,0.5]];portConstraint=eastwest;sketch=1;curveFitting=1;jiggle=2;" parent="4kh-KtR7aPHPuSV9MTnz-56" vertex="1">
          <mxGeometry y="78" width="160" height="26" as="geometry" />
        </mxCell>
        <mxCell id="4kh-KtR7aPHPuSV9MTnz-61" value="" style="endArrow=open;html=1;endSize=12;startArrow=diamondThin;startSize=14;startFill=1;edgeStyle=orthogonalEdgeStyle;align=left;verticalAlign=bottom;rounded=0;entryX=0.5;entryY=0;entryDx=0;entryDy=0;sketch=1;curveFitting=1;jiggle=2;" parent="1" source="4kh-KtR7aPHPuSV9MTnz-57" target="4kh-KtR7aPHPuSV9MTnz-7" edge="1">
          <mxGeometry x="-1" y="100" relative="1" as="geometry">
            <mxPoint x="-380" y="210" as="sourcePoint" />
            <mxPoint x="-220" y="210" as="targetPoint" />
            <mxPoint as="offset" />
          </mxGeometry>
        </mxCell>
        <mxCell id="4kh-KtR7aPHPuSV9MTnz-62" value="" style="endArrow=open;html=1;endSize=12;startArrow=diamondThin;startSize=14;startFill=1;edgeStyle=orthogonalEdgeStyle;align=left;verticalAlign=bottom;rounded=0;exitX=1;exitY=0.5;exitDx=0;exitDy=0;entryX=0.5;entryY=0;entryDx=0;entryDy=0;sketch=1;curveFitting=1;jiggle=2;" parent="1" source="4kh-KtR7aPHPuSV9MTnz-58" target="4kh-KtR7aPHPuSV9MTnz-7" edge="1">
          <mxGeometry x="-1" y="100" relative="1" as="geometry">
            <mxPoint x="-370" y="220" as="sourcePoint" />
            <mxPoint x="-210" y="220" as="targetPoint" />
            <mxPoint as="offset" />
          </mxGeometry>
        </mxCell>
        <mxCell id="4kh-KtR7aPHPuSV9MTnz-63" value="" style="endArrow=open;html=1;endSize=12;startArrow=diamondThin;startSize=14;startFill=1;edgeStyle=orthogonalEdgeStyle;align=left;verticalAlign=bottom;rounded=0;exitX=0;exitY=0.5;exitDx=0;exitDy=0;entryX=0.5;entryY=0;entryDx=0;entryDy=0;sketch=1;curveFitting=1;jiggle=2;" parent="1" source="4kh-KtR7aPHPuSV9MTnz-48" target="4kh-KtR7aPHPuSV9MTnz-56" edge="1">
          <mxGeometry x="-1" y="100" relative="1" as="geometry">
            <mxPoint x="-360" y="230" as="sourcePoint" />
            <mxPoint x="-200" y="230" as="targetPoint" />
            <mxPoint as="offset" />
            <Array as="points">
              <mxPoint x="-200" y="-61" />
              <mxPoint x="-200" y="-320" />
              <mxPoint x="-320" y="-320" />
            </Array>
          </mxGeometry>
        </mxCell>
        <mxCell id="4kh-KtR7aPHPuSV9MTnz-67" value="NidingCalculation&#xa;DynamicSystems" style="swimlane;fontStyle=1;align=center;verticalAlign=top;childLayout=stackLayout;horizontal=1;startSize=40;horizontalStack=0;resizeParent=1;resizeParentMax=0;resizeLast=0;collapsible=1;marginBottom=0;sketch=1;fillColor=#e1d5e7;strokeColor=#9673a6;" parent="1" vertex="1">
          <mxGeometry x="-160" y="600" width="160" height="100" as="geometry" />
        </mxCell>
        <mxCell id="4kh-KtR7aPHPuSV9MTnz-68" value="- tool : INiding" style="text;strokeColor=none;fillColor=none;align=left;verticalAlign=top;spacingLeft=4;spacingRight=4;overflow=hidden;rotatable=0;points=[[0,0.5],[1,0.5]];portConstraint=eastwest;sketch=1;" parent="4kh-KtR7aPHPuSV9MTnz-67" vertex="1">
          <mxGeometry y="40" width="160" height="26" as="geometry" />
        </mxCell>
        <mxCell id="4kh-KtR7aPHPuSV9MTnz-69" value="" style="line;strokeWidth=1;fillColor=none;align=left;verticalAlign=middle;spacingTop=-1;spacingLeft=3;spacingRight=3;rotatable=0;labelPosition=right;points=[];portConstraint=eastwest;strokeColor=inherit;sketch=1;" parent="4kh-KtR7aPHPuSV9MTnz-67" vertex="1">
          <mxGeometry y="66" width="160" height="8" as="geometry" />
        </mxCell>
        <mxCell id="4kh-KtR7aPHPuSV9MTnz-70" value="+ GetValue() =&gt; &lt;T&gt;" style="text;strokeColor=none;fillColor=none;align=left;verticalAlign=top;spacingLeft=4;spacingRight=4;overflow=hidden;rotatable=0;points=[[0,0.5],[1,0.5]];portConstraint=eastwest;sketch=1;" parent="4kh-KtR7aPHPuSV9MTnz-67" vertex="1">
          <mxGeometry y="74" width="160" height="26" as="geometry" />
        </mxCell>
        <mxCell id="4kh-KtR7aPHPuSV9MTnz-71" value="" style="endArrow=block;endSize=16;endFill=0;html=1;rounded=0;exitX=0.5;exitY=0;exitDx=0;exitDy=0;sketch=1;curveFitting=1;jiggle=2;" parent="1" source="4kh-KtR7aPHPuSV9MTnz-67" target="4kh-KtR7aPHPuSV9MTnz-28" edge="1">
          <mxGeometry x="0.25" y="100" width="160" relative="1" as="geometry">
            <mxPoint x="170" y="420" as="sourcePoint" />
            <mxPoint x="170" y="124" as="targetPoint" />
            <mxPoint as="offset" />
          </mxGeometry>
        </mxCell>
        <mxCell id="4kh-KtR7aPHPuSV9MTnz-73" value="ShimizyMorioka&#xa;DynamicSystems" style="swimlane;fontStyle=1;align=center;verticalAlign=top;childLayout=stackLayout;horizontal=1;startSize=40;horizontalStack=0;resizeParent=1;resizeParentMax=0;resizeLast=0;collapsible=1;marginBottom=0;sketch=1;fillColor=#e1d5e7;strokeColor=#9673a6;" parent="1" vertex="1">
          <mxGeometry x="520" y="600" width="160" height="100" as="geometry" />
        </mxCell>
        <mxCell id="4kh-KtR7aPHPuSV9MTnz-74" value="+ field: type" style="text;strokeColor=none;fillColor=none;align=left;verticalAlign=top;spacingLeft=4;spacingRight=4;overflow=hidden;rotatable=0;points=[[0,0.5],[1,0.5]];portConstraint=eastwest;sketch=1;" parent="4kh-KtR7aPHPuSV9MTnz-73" vertex="1">
          <mxGeometry y="40" width="160" height="26" as="geometry" />
        </mxCell>
        <mxCell id="4kh-KtR7aPHPuSV9MTnz-75" value="" style="line;strokeWidth=1;fillColor=none;align=left;verticalAlign=middle;spacingTop=-1;spacingLeft=3;spacingRight=3;rotatable=0;labelPosition=right;points=[];portConstraint=eastwest;strokeColor=inherit;sketch=1;" parent="4kh-KtR7aPHPuSV9MTnz-73" vertex="1">
          <mxGeometry y="66" width="160" height="8" as="geometry" />
        </mxCell>
        <mxCell id="4kh-KtR7aPHPuSV9MTnz-76" value="+ GetNext() =&gt; Vector3" style="text;strokeColor=none;fillColor=none;align=left;verticalAlign=top;spacingLeft=4;spacingRight=4;overflow=hidden;rotatable=0;points=[[0,0.5],[1,0.5]];portConstraint=eastwest;sketch=1;" parent="4kh-KtR7aPHPuSV9MTnz-73" vertex="1">
          <mxGeometry y="74" width="160" height="26" as="geometry" />
        </mxCell>
        <mxCell id="4kh-KtR7aPHPuSV9MTnz-77" value="" style="endArrow=block;endSize=16;endFill=0;html=1;rounded=0;exitX=0.5;exitY=0;exitDx=0;exitDy=0;sketch=1;curveFitting=1;jiggle=2;" parent="1" source="4kh-KtR7aPHPuSV9MTnz-73" target="4kh-KtR7aPHPuSV9MTnz-1" edge="1">
          <mxGeometry x="0.25" y="100" width="160" relative="1" as="geometry">
            <mxPoint x="410" y="420" as="sourcePoint" />
            <mxPoint x="410" y="228" as="targetPoint" />
            <mxPoint as="offset" />
          </mxGeometry>
        </mxCell>
        <mxCell id="4kh-KtR7aPHPuSV9MTnz-78" value="&lt;p style=&quot;margin:0px;margin-top:4px;text-align:center;&quot;&gt;&lt;i&gt;&amp;lt;&amp;lt;Interface&amp;gt;&amp;gt;&lt;/i&gt;&lt;br&gt;&lt;b&gt;INiding&lt;/b&gt;&lt;/p&gt;&lt;hr size=&quot;1&quot;&gt;&lt;p style=&quot;margin:0px;margin-left:4px;&quot;&gt;&lt;span style=&quot;background-color: initial;&quot;&gt;+ IsCriticNiding&lt;/span&gt;&lt;br&gt;&lt;/p&gt;&lt;p style=&quot;margin:0px;margin-left:4px;&quot;&gt;(Vector3, Vector3) : Bool&lt;/p&gt;" style="verticalAlign=top;align=left;overflow=fill;fontSize=12;fontFamily=Helvetica;html=1;sketch=1;fillColor=#f8cecc;strokeColor=#b85450;" parent="1" vertex="1">
          <mxGeometry x="-160" y="430" width="160" height="90" as="geometry" />
        </mxCell>
        <mxCell id="4kh-KtR7aPHPuSV9MTnz-80" value="" style="endArrow=open;html=1;endSize=12;startArrow=diamondThin;startSize=14;startFill=1;edgeStyle=orthogonalEdgeStyle;align=left;verticalAlign=bottom;rounded=0;sketch=1;entryX=0.5;entryY=0;entryDx=0;entryDy=0;" parent="1" source="4kh-KtR7aPHPuSV9MTnz-68" target="4kh-KtR7aPHPuSV9MTnz-78" edge="1">
          <mxGeometry x="-1" y="76" relative="1" as="geometry">
            <mxPoint x="-250" y="820" as="sourcePoint" />
            <mxPoint x="-90" y="820" as="targetPoint" />
            <Array as="points">
              <mxPoint x="-190" y="653" />
              <mxPoint x="-190" y="400" />
              <mxPoint x="-80" y="400" />
            </Array>
            <mxPoint x="-70" y="46" as="offset" />
          </mxGeometry>
        </mxCell>
        <mxCell id="4kh-KtR7aPHPuSV9MTnz-81" value="" style="rounded=0;orthogonalLoop=1;jettySize=auto;html=1;endArrow=none;endFill=0;sketch=0;sourcePerimeterSpacing=0;targetPerimeterSpacing=0;" parent="1" source="4kh-KtR7aPHPuSV9MTnz-78" target="4kh-KtR7aPHPuSV9MTnz-83" edge="1">
          <mxGeometry relative="1" as="geometry">
            <mxPoint x="150" y="845" as="sourcePoint" />
          </mxGeometry>
        </mxCell>
        <mxCell id="4kh-KtR7aPHPuSV9MTnz-82" value="" style="rounded=0;orthogonalLoop=1;jettySize=auto;html=1;endArrow=halfCircle;endFill=0;entryX=0.5;entryY=0.5;endSize=6;strokeWidth=1;sketch=0;exitX=0.5;exitY=0;exitDx=0;exitDy=0;" parent="1" source="4kh-KtR7aPHPuSV9MTnz-15" target="4kh-KtR7aPHPuSV9MTnz-83" edge="1">
          <mxGeometry relative="1" as="geometry">
            <mxPoint x="190" y="845" as="sourcePoint" />
          </mxGeometry>
        </mxCell>
        <mxCell id="4kh-KtR7aPHPuSV9MTnz-83" value="" style="ellipse;whiteSpace=wrap;html=1;align=center;aspect=fixed;resizable=0;points=[];outlineConnect=0;sketch=0;" parent="1" vertex="1">
          <mxGeometry x="260" y="470" width="10" height="10" as="geometry" />
        </mxCell>
        <mxCell id="4kh-KtR7aPHPuSV9MTnz-84" value="" style="rounded=0;orthogonalLoop=1;jettySize=auto;html=1;endArrow=halfCircle;endFill=0;endSize=6;strokeWidth=1;sketch=0;exitX=0.5;exitY=0;exitDx=0;exitDy=0;" parent="1" source="4kh-KtR7aPHPuSV9MTnz-73" target="4kh-KtR7aPHPuSV9MTnz-83" edge="1">
          <mxGeometry relative="1" as="geometry">
            <mxPoint x="455" y="855" as="sourcePoint" />
            <mxPoint x="270" y="475" as="targetPoint" />
          </mxGeometry>
        </mxCell>
        <mxCell id="A7Pl7_H6EMgGXGqB_MyO-1" value="Statege" style="shape=module;align=left;spacingLeft=20;align=center;verticalAlign=top;sketch=1;curveFitting=1;jiggle=2;" vertex="1" parent="1">
          <mxGeometry x="-750" y="-944" width="490" height="320" as="geometry" />
        </mxCell>
        <mxCell id="A7Pl7_H6EMgGXGqB_MyO-2" value="CreaterImg" style="swimlane;fontStyle=1;align=center;verticalAlign=top;childLayout=stackLayout;horizontal=1;startSize=26;horizontalStack=0;resizeParent=1;resizeParentMax=0;resizeLast=0;collapsible=1;marginBottom=0;fillColor=#e1d5e7;strokeColor=#9673a6;sketch=1;curveFitting=1;jiggle=2;" vertex="1" parent="1">
          <mxGeometry x="-940" y="-1024" width="160" height="108" as="geometry" />
        </mxCell>
        <mxCell id="A7Pl7_H6EMgGXGqB_MyO-3" value="+ SaveProvaider: &#xa;SaveProvaider" style="text;strokeColor=none;fillColor=none;align=left;verticalAlign=top;spacingLeft=4;spacingRight=4;overflow=hidden;rotatable=0;points=[[0,0.5],[1,0.5]];portConstraint=eastwest;sketch=1;curveFitting=1;jiggle=2;" vertex="1" parent="A7Pl7_H6EMgGXGqB_MyO-2">
          <mxGeometry y="26" width="160" height="34" as="geometry" />
        </mxCell>
        <mxCell id="A7Pl7_H6EMgGXGqB_MyO-4" value="" style="line;strokeWidth=1;fillColor=none;align=left;verticalAlign=middle;spacingTop=-1;spacingLeft=3;spacingRight=3;rotatable=0;labelPosition=right;points=[];portConstraint=eastwest;strokeColor=inherit;sketch=1;curveFitting=1;jiggle=2;" vertex="1" parent="A7Pl7_H6EMgGXGqB_MyO-2">
          <mxGeometry y="60" width="160" height="8" as="geometry" />
        </mxCell>
        <mxCell id="A7Pl7_H6EMgGXGqB_MyO-5" value="+ CreateImg&#xa;(Color[,] colorsPixels)" style="text;strokeColor=none;fillColor=none;align=left;verticalAlign=top;spacingLeft=4;spacingRight=4;overflow=hidden;rotatable=0;points=[[0,0.5],[1,0.5]];portConstraint=eastwest;sketch=1;curveFitting=1;jiggle=2;" vertex="1" parent="A7Pl7_H6EMgGXGqB_MyO-2">
          <mxGeometry y="68" width="160" height="40" as="geometry" />
        </mxCell>
        <mxCell id="A7Pl7_H6EMgGXGqB_MyO-6" value="&lt;p style=&quot;margin:0px;margin-top:4px;text-align:center;&quot;&gt;&lt;i&gt;&amp;lt;&amp;lt;Interface&amp;gt;&amp;gt;&lt;/i&gt;&lt;br&gt;&lt;b&gt;ISaveProvaider&lt;/b&gt;&lt;/p&gt;&lt;hr size=&quot;1&quot;&gt;&lt;p style=&quot;margin:0px;margin-left:4px;&quot;&gt;&lt;br&gt;&lt;/p&gt;&lt;hr size=&quot;1&quot;&gt;&lt;p style=&quot;margin:0px;margin-left:4px;&quot;&gt;+ Save()&lt;/p&gt;" style="verticalAlign=top;align=left;overflow=fill;fontSize=12;fontFamily=Helvetica;html=1;fillColor=#f8cecc;strokeColor=#b85450;sketch=1;curveFitting=1;jiggle=2;" vertex="1" parent="1">
          <mxGeometry x="-700" y="-904" width="160" height="110" as="geometry" />
        </mxCell>
        <mxCell id="A7Pl7_H6EMgGXGqB_MyO-7" value="" style="endArrow=open;html=1;endSize=12;startArrow=diamondThin;startSize=14;startFill=1;edgeStyle=orthogonalEdgeStyle;align=left;verticalAlign=bottom;rounded=0;exitX=0.5;exitY=0;exitDx=0;exitDy=0;sketch=1;curveFitting=1;jiggle=2;" edge="1" parent="1" source="A7Pl7_H6EMgGXGqB_MyO-6" target="A7Pl7_H6EMgGXGqB_MyO-3">
          <mxGeometry x="-1" y="100" relative="1" as="geometry">
            <mxPoint x="-940" y="-604" as="sourcePoint" />
            <mxPoint x="-780" y="-604" as="targetPoint" />
            <mxPoint x="-60" y="20" as="offset" />
          </mxGeometry>
        </mxCell>
        <mxCell id="A7Pl7_H6EMgGXGqB_MyO-8" value="DbSaveProvaider" style="swimlane;fontStyle=1;align=center;verticalAlign=top;childLayout=stackLayout;horizontal=1;startSize=26;horizontalStack=0;resizeParent=1;resizeParentMax=0;resizeLast=0;collapsible=1;marginBottom=0;fillColor=#e1d5e7;strokeColor=#9673a6;sketch=1;curveFitting=1;jiggle=2;" vertex="1" parent="1">
          <mxGeometry x="-700" y="-744" width="160" height="86" as="geometry" />
        </mxCell>
        <mxCell id="A7Pl7_H6EMgGXGqB_MyO-9" value="+ Path : string" style="text;strokeColor=none;fillColor=none;align=left;verticalAlign=top;spacingLeft=4;spacingRight=4;overflow=hidden;rotatable=0;points=[[0,0.5],[1,0.5]];portConstraint=eastwest;sketch=1;curveFitting=1;jiggle=2;" vertex="1" parent="A7Pl7_H6EMgGXGqB_MyO-8">
          <mxGeometry y="26" width="160" height="26" as="geometry" />
        </mxCell>
        <mxCell id="A7Pl7_H6EMgGXGqB_MyO-10" value="" style="line;strokeWidth=1;fillColor=none;align=left;verticalAlign=middle;spacingTop=-1;spacingLeft=3;spacingRight=3;rotatable=0;labelPosition=right;points=[];portConstraint=eastwest;strokeColor=inherit;sketch=1;curveFitting=1;jiggle=2;" vertex="1" parent="A7Pl7_H6EMgGXGqB_MyO-8">
          <mxGeometry y="52" width="160" height="8" as="geometry" />
        </mxCell>
        <mxCell id="A7Pl7_H6EMgGXGqB_MyO-11" value="+ save()" style="text;strokeColor=none;fillColor=none;align=left;verticalAlign=top;spacingLeft=4;spacingRight=4;overflow=hidden;rotatable=0;points=[[0,0.5],[1,0.5]];portConstraint=eastwest;sketch=1;curveFitting=1;jiggle=2;" vertex="1" parent="A7Pl7_H6EMgGXGqB_MyO-8">
          <mxGeometry y="60" width="160" height="26" as="geometry" />
        </mxCell>
        <mxCell id="A7Pl7_H6EMgGXGqB_MyO-12" value="DirectorySaveProvaider" style="swimlane;fontStyle=1;align=center;verticalAlign=top;childLayout=stackLayout;horizontal=1;startSize=26;horizontalStack=0;resizeParent=1;resizeParentMax=0;resizeLast=0;collapsible=1;marginBottom=0;fillColor=#e1d5e7;strokeColor=#9673a6;sketch=1;curveFitting=1;jiggle=2;" vertex="1" parent="1">
          <mxGeometry x="-460" y="-744" width="160" height="86" as="geometry" />
        </mxCell>
        <mxCell id="A7Pl7_H6EMgGXGqB_MyO-13" value="+ Path" style="text;strokeColor=none;fillColor=none;align=left;verticalAlign=top;spacingLeft=4;spacingRight=4;overflow=hidden;rotatable=0;points=[[0,0.5],[1,0.5]];portConstraint=eastwest;sketch=1;curveFitting=1;jiggle=2;" vertex="1" parent="A7Pl7_H6EMgGXGqB_MyO-12">
          <mxGeometry y="26" width="160" height="26" as="geometry" />
        </mxCell>
        <mxCell id="A7Pl7_H6EMgGXGqB_MyO-14" value="" style="line;strokeWidth=1;fillColor=none;align=left;verticalAlign=middle;spacingTop=-1;spacingLeft=3;spacingRight=3;rotatable=0;labelPosition=right;points=[];portConstraint=eastwest;strokeColor=inherit;sketch=1;curveFitting=1;jiggle=2;" vertex="1" parent="A7Pl7_H6EMgGXGqB_MyO-12">
          <mxGeometry y="52" width="160" height="8" as="geometry" />
        </mxCell>
        <mxCell id="A7Pl7_H6EMgGXGqB_MyO-15" value="+ Save()" style="text;strokeColor=none;fillColor=none;align=left;verticalAlign=top;spacingLeft=4;spacingRight=4;overflow=hidden;rotatable=0;points=[[0,0.5],[1,0.5]];portConstraint=eastwest;sketch=1;curveFitting=1;jiggle=2;" vertex="1" parent="A7Pl7_H6EMgGXGqB_MyO-12">
          <mxGeometry y="60" width="160" height="26" as="geometry" />
        </mxCell>
        <mxCell id="A7Pl7_H6EMgGXGqB_MyO-16" value="" style="endArrow=block;endSize=16;endFill=0;html=1;rounded=0;exitX=0.5;exitY=0;exitDx=0;exitDy=0;sketch=1;curveFitting=1;jiggle=2;" edge="1" parent="1" source="A7Pl7_H6EMgGXGqB_MyO-8" target="A7Pl7_H6EMgGXGqB_MyO-6">
          <mxGeometry x="-1" y="120" width="160" relative="1" as="geometry">
            <mxPoint x="-940" y="-404" as="sourcePoint" />
            <mxPoint x="-780" y="-404" as="targetPoint" />
            <mxPoint as="offset" />
          </mxGeometry>
        </mxCell>
        <mxCell id="A7Pl7_H6EMgGXGqB_MyO-17" value="" style="endArrow=block;endSize=16;endFill=0;html=1;rounded=0;exitX=0.5;exitY=0;exitDx=0;exitDy=0;sketch=1;curveFitting=1;jiggle=2;" edge="1" parent="1" source="A7Pl7_H6EMgGXGqB_MyO-12" target="A7Pl7_H6EMgGXGqB_MyO-6">
          <mxGeometry x="-1" y="160" width="160" relative="1" as="geometry">
            <mxPoint x="-910" y="-454" as="sourcePoint" />
            <mxPoint x="-750" y="-454" as="targetPoint" />
            <mxPoint as="offset" />
          </mxGeometry>
        </mxCell>
        <mxCell id="A7Pl7_H6EMgGXGqB_MyO-18" value="" style="endArrow=open;endSize=12;dashed=1;html=1;rounded=0;entryX=1;entryY=0.5;entryDx=0;entryDy=0;exitX=0.5;exitY=0;exitDx=0;exitDy=0;sketch=1;curveFitting=1;jiggle=2;" edge="1" parent="1" source="A7Pl7_H6EMgGXGqB_MyO-6" target="A7Pl7_H6EMgGXGqB_MyO-5">
          <mxGeometry x="-0.75" y="120" width="160" relative="1" as="geometry">
            <mxPoint x="-820" y="-414" as="sourcePoint" />
            <mxPoint x="-660" y="-414" as="targetPoint" />
            <mxPoint as="offset" />
          </mxGeometry>
        </mxCell>
        <mxCell id="A7Pl7_H6EMgGXGqB_MyO-19" value="&lt;p style=&quot;margin:0px;margin-top:4px;text-align:center;&quot;&gt;&lt;i&gt;&amp;lt;&amp;lt;Interface&amp;gt;&amp;gt;&lt;/i&gt;&lt;br&gt;&lt;b&gt;IImger&lt;/b&gt;&lt;/p&gt;&lt;hr size=&quot;1&quot;&gt;&lt;p style=&quot;margin:0px;margin-left:4px;&quot;&gt;+ height : number&lt;/p&gt;&lt;p style=&quot;margin:0px;margin-left:4px;&quot;&gt;+ width : number&lt;/p&gt;&lt;hr size=&quot;1&quot;&gt;&lt;p style=&quot;margin:0px;margin-left:4px;&quot;&gt;# GetMatrix() : Color[,]&lt;/p&gt;&lt;p style=&quot;margin:0px;margin-left:4px;&quot;&gt;+ GetImg() : bool&lt;/p&gt;" style="verticalAlign=top;align=left;overflow=fill;fontSize=12;fontFamily=Helvetica;html=1;fillColor=#f8cecc;strokeColor=#b85450;sketch=1;curveFitting=1;jiggle=2;" vertex="1" parent="1">
          <mxGeometry x="-940" y="-1224" width="160" height="120" as="geometry" />
        </mxCell>
        <mxCell id="A7Pl7_H6EMgGXGqB_MyO-20" value="" style="endArrow=open;endSize=12;dashed=1;html=1;rounded=0;exitX=0.5;exitY=1;exitDx=0;exitDy=0;entryX=0.5;entryY=0;entryDx=0;entryDy=0;sketch=1;curveFitting=1;jiggle=2;" edge="1" parent="1" source="A7Pl7_H6EMgGXGqB_MyO-19" target="A7Pl7_H6EMgGXGqB_MyO-2">
          <mxGeometry x="-0.125" y="80" width="160" relative="1" as="geometry">
            <mxPoint x="-540" y="-1164" as="sourcePoint" />
            <mxPoint x="-380" y="-1164" as="targetPoint" />
            <mxPoint as="offset" />
          </mxGeometry>
        </mxCell>
        <mxCell id="qkvboqOC8ZkTmOwASB4h-4" value="" style="endArrow=block;endSize=16;endFill=0;html=1;rounded=0;sketch=1;exitX=0.5;exitY=0;exitDx=0;exitDy=0;" edge="1" parent="1" source="4kh-KtR7aPHPuSV9MTnz-20" target="A7Pl7_H6EMgGXGqB_MyO-19">
          <mxGeometry x="-0.375" y="60" width="160" relative="1" as="geometry">
            <mxPoint x="-900" y="-480" as="sourcePoint" />
            <mxPoint x="-740" y="-480" as="targetPoint" />
            <mxPoint as="offset" />
          </mxGeometry>
        </mxCell>
        <mxCell id="qkvboqOC8ZkTmOwASB4h-5" value="Portret" style="swimlane;fontStyle=1;align=center;verticalAlign=top;childLayout=stackLayout;horizontal=1;startSize=26;horizontalStack=0;resizeParent=1;resizeParentMax=0;resizeLast=0;collapsible=1;marginBottom=0;fillColor=#e1d5e7;strokeColor=#9673a6;sketch=1;curveFitting=1;jiggle=2;" vertex="1" parent="1">
          <mxGeometry x="-1430" y="-160" width="160" height="138" as="geometry" />
        </mxCell>
        <mxCell id="qkvboqOC8ZkTmOwASB4h-11" value="+ Count : int" style="text;strokeColor=none;fillColor=none;align=left;verticalAlign=top;spacingLeft=4;spacingRight=4;overflow=hidden;rotatable=0;points=[[0,0.5],[1,0.5]];portConstraint=eastwest;" vertex="1" parent="qkvboqOC8ZkTmOwASB4h-5">
          <mxGeometry y="26" width="160" height="26" as="geometry" />
        </mxCell>
        <mxCell id="qkvboqOC8ZkTmOwASB4h-12" value="+ Steap : float" style="text;strokeColor=none;fillColor=none;align=left;verticalAlign=top;spacingLeft=4;spacingRight=4;overflow=hidden;rotatable=0;points=[[0,0.5],[1,0.5]];portConstraint=eastwest;" vertex="1" parent="qkvboqOC8ZkTmOwASB4h-5">
          <mxGeometry y="52" width="160" height="26" as="geometry" />
        </mxCell>
        <mxCell id="qkvboqOC8ZkTmOwASB4h-6" value="+ dSystems : SynamicSystem" style="text;strokeColor=none;fillColor=none;align=left;verticalAlign=top;spacingLeft=4;spacingRight=4;overflow=hidden;rotatable=0;points=[[0,0.5],[1,0.5]];portConstraint=eastwest;" vertex="1" parent="qkvboqOC8ZkTmOwASB4h-5">
          <mxGeometry y="78" width="160" height="26" as="geometry" />
        </mxCell>
        <mxCell id="qkvboqOC8ZkTmOwASB4h-7" value="" style="line;strokeWidth=1;fillColor=none;align=left;verticalAlign=middle;spacingTop=-1;spacingLeft=3;spacingRight=3;rotatable=0;labelPosition=right;points=[];portConstraint=eastwest;strokeColor=inherit;" vertex="1" parent="qkvboqOC8ZkTmOwASB4h-5">
          <mxGeometry y="104" width="160" height="8" as="geometry" />
        </mxCell>
        <mxCell id="qkvboqOC8ZkTmOwASB4h-8" value="+ GetMatrix(): Color[,]" style="text;strokeColor=none;fillColor=none;align=left;verticalAlign=top;spacingLeft=4;spacingRight=4;overflow=hidden;rotatable=0;points=[[0,0.5],[1,0.5]];portConstraint=eastwest;" vertex="1" parent="qkvboqOC8ZkTmOwASB4h-5">
          <mxGeometry y="112" width="160" height="26" as="geometry" />
        </mxCell>
        <mxCell id="qkvboqOC8ZkTmOwASB4h-9" value="" style="endArrow=block;endSize=16;endFill=0;html=1;rounded=0;sketch=1;exitX=0.5;exitY=0;exitDx=0;exitDy=0;" edge="1" parent="1" source="qkvboqOC8ZkTmOwASB4h-5" target="A7Pl7_H6EMgGXGqB_MyO-19">
          <mxGeometry x="0.25" y="90" width="160" relative="1" as="geometry">
            <mxPoint x="-1050" y="-90" as="sourcePoint" />
            <mxPoint x="-890" y="-90" as="targetPoint" />
            <mxPoint as="offset" />
          </mxGeometry>
        </mxCell>
      </root>
    </mxGraphModel>
  </diagram>
  <diagram id="oTqMDTe2mWpxHyz3TcQX" name="CreatePng">
    <mxGraphModel dx="1372" dy="831" grid="1" gridSize="10" guides="1" tooltips="1" connect="1" arrows="1" fold="1" page="1" pageScale="1" pageWidth="827" pageHeight="1169" math="0" shadow="0">
      <root>
        <mxCell id="0" />
        <mxCell id="1" parent="0" />
        <mxCell id="JrlWjc0MwSkIItQcnWA1-24" value="Statege" style="shape=module;align=left;spacingLeft=20;align=center;verticalAlign=top;sketch=1;curveFitting=1;jiggle=2;" vertex="1" parent="1">
          <mxGeometry x="230" y="800" width="490" height="320" as="geometry" />
        </mxCell>
        <mxCell id="JrlWjc0MwSkIItQcnWA1-1" value="CreaterImg" style="swimlane;fontStyle=1;align=center;verticalAlign=top;childLayout=stackLayout;horizontal=1;startSize=26;horizontalStack=0;resizeParent=1;resizeParentMax=0;resizeLast=0;collapsible=1;marginBottom=0;fillColor=#e1d5e7;strokeColor=#9673a6;sketch=1;curveFitting=1;jiggle=2;" vertex="1" parent="1">
          <mxGeometry x="40" y="720" width="160" height="108" as="geometry" />
        </mxCell>
        <mxCell id="JrlWjc0MwSkIItQcnWA1-2" value="+ SaveProvaider: &#xa;SaveProvaider" style="text;strokeColor=none;fillColor=none;align=left;verticalAlign=top;spacingLeft=4;spacingRight=4;overflow=hidden;rotatable=0;points=[[0,0.5],[1,0.5]];portConstraint=eastwest;sketch=1;curveFitting=1;jiggle=2;" vertex="1" parent="JrlWjc0MwSkIItQcnWA1-1">
          <mxGeometry y="26" width="160" height="34" as="geometry" />
        </mxCell>
        <mxCell id="JrlWjc0MwSkIItQcnWA1-3" value="" style="line;strokeWidth=1;fillColor=none;align=left;verticalAlign=middle;spacingTop=-1;spacingLeft=3;spacingRight=3;rotatable=0;labelPosition=right;points=[];portConstraint=eastwest;strokeColor=inherit;sketch=1;curveFitting=1;jiggle=2;" vertex="1" parent="JrlWjc0MwSkIItQcnWA1-1">
          <mxGeometry y="60" width="160" height="8" as="geometry" />
        </mxCell>
        <mxCell id="JrlWjc0MwSkIItQcnWA1-4" value="+ CreateImg&#xa;(Color[,] colorsPixels)" style="text;strokeColor=none;fillColor=none;align=left;verticalAlign=top;spacingLeft=4;spacingRight=4;overflow=hidden;rotatable=0;points=[[0,0.5],[1,0.5]];portConstraint=eastwest;sketch=1;curveFitting=1;jiggle=2;" vertex="1" parent="JrlWjc0MwSkIItQcnWA1-1">
          <mxGeometry y="68" width="160" height="40" as="geometry" />
        </mxCell>
        <mxCell id="JrlWjc0MwSkIItQcnWA1-10" value="&lt;p style=&quot;margin:0px;margin-top:4px;text-align:center;&quot;&gt;&lt;i&gt;&amp;lt;&amp;lt;Interface&amp;gt;&amp;gt;&lt;/i&gt;&lt;br&gt;&lt;b&gt;ISaveProvaider&lt;/b&gt;&lt;/p&gt;&lt;hr size=&quot;1&quot;&gt;&lt;p style=&quot;margin:0px;margin-left:4px;&quot;&gt;&lt;br&gt;&lt;/p&gt;&lt;hr size=&quot;1&quot;&gt;&lt;p style=&quot;margin:0px;margin-left:4px;&quot;&gt;+ Save()&lt;/p&gt;" style="verticalAlign=top;align=left;overflow=fill;fontSize=12;fontFamily=Helvetica;html=1;fillColor=#f8cecc;strokeColor=#b85450;sketch=1;curveFitting=1;jiggle=2;" vertex="1" parent="1">
          <mxGeometry x="280" y="840" width="160" height="110" as="geometry" />
        </mxCell>
        <mxCell id="JrlWjc0MwSkIItQcnWA1-11" value="" style="endArrow=open;html=1;endSize=12;startArrow=diamondThin;startSize=14;startFill=1;edgeStyle=orthogonalEdgeStyle;align=left;verticalAlign=bottom;rounded=0;exitX=0.5;exitY=0;exitDx=0;exitDy=0;sketch=1;curveFitting=1;jiggle=2;" edge="1" parent="1" source="JrlWjc0MwSkIItQcnWA1-10" target="JrlWjc0MwSkIItQcnWA1-2">
          <mxGeometry x="-1" y="100" relative="1" as="geometry">
            <mxPoint x="40" y="1140" as="sourcePoint" />
            <mxPoint x="200" y="1140" as="targetPoint" />
            <mxPoint x="-60" y="20" as="offset" />
          </mxGeometry>
        </mxCell>
        <mxCell id="JrlWjc0MwSkIItQcnWA1-12" value="DbSaveProvaider" style="swimlane;fontStyle=1;align=center;verticalAlign=top;childLayout=stackLayout;horizontal=1;startSize=26;horizontalStack=0;resizeParent=1;resizeParentMax=0;resizeLast=0;collapsible=1;marginBottom=0;fillColor=#e1d5e7;strokeColor=#9673a6;sketch=1;curveFitting=1;jiggle=2;" vertex="1" parent="1">
          <mxGeometry x="280" y="1000" width="160" height="86" as="geometry" />
        </mxCell>
        <mxCell id="JrlWjc0MwSkIItQcnWA1-13" value="+ Path : string" style="text;strokeColor=none;fillColor=none;align=left;verticalAlign=top;spacingLeft=4;spacingRight=4;overflow=hidden;rotatable=0;points=[[0,0.5],[1,0.5]];portConstraint=eastwest;sketch=1;curveFitting=1;jiggle=2;" vertex="1" parent="JrlWjc0MwSkIItQcnWA1-12">
          <mxGeometry y="26" width="160" height="26" as="geometry" />
        </mxCell>
        <mxCell id="JrlWjc0MwSkIItQcnWA1-14" value="" style="line;strokeWidth=1;fillColor=none;align=left;verticalAlign=middle;spacingTop=-1;spacingLeft=3;spacingRight=3;rotatable=0;labelPosition=right;points=[];portConstraint=eastwest;strokeColor=inherit;sketch=1;curveFitting=1;jiggle=2;" vertex="1" parent="JrlWjc0MwSkIItQcnWA1-12">
          <mxGeometry y="52" width="160" height="8" as="geometry" />
        </mxCell>
        <mxCell id="JrlWjc0MwSkIItQcnWA1-15" value="+ save()" style="text;strokeColor=none;fillColor=none;align=left;verticalAlign=top;spacingLeft=4;spacingRight=4;overflow=hidden;rotatable=0;points=[[0,0.5],[1,0.5]];portConstraint=eastwest;sketch=1;curveFitting=1;jiggle=2;" vertex="1" parent="JrlWjc0MwSkIItQcnWA1-12">
          <mxGeometry y="60" width="160" height="26" as="geometry" />
        </mxCell>
        <mxCell id="JrlWjc0MwSkIItQcnWA1-16" value="DirectorySaveProvaider" style="swimlane;fontStyle=1;align=center;verticalAlign=top;childLayout=stackLayout;horizontal=1;startSize=26;horizontalStack=0;resizeParent=1;resizeParentMax=0;resizeLast=0;collapsible=1;marginBottom=0;fillColor=#e1d5e7;strokeColor=#9673a6;sketch=1;curveFitting=1;jiggle=2;" vertex="1" parent="1">
          <mxGeometry x="520" y="1000" width="160" height="86" as="geometry" />
        </mxCell>
        <mxCell id="JrlWjc0MwSkIItQcnWA1-17" value="+ Path" style="text;strokeColor=none;fillColor=none;align=left;verticalAlign=top;spacingLeft=4;spacingRight=4;overflow=hidden;rotatable=0;points=[[0,0.5],[1,0.5]];portConstraint=eastwest;sketch=1;curveFitting=1;jiggle=2;" vertex="1" parent="JrlWjc0MwSkIItQcnWA1-16">
          <mxGeometry y="26" width="160" height="26" as="geometry" />
        </mxCell>
        <mxCell id="JrlWjc0MwSkIItQcnWA1-18" value="" style="line;strokeWidth=1;fillColor=none;align=left;verticalAlign=middle;spacingTop=-1;spacingLeft=3;spacingRight=3;rotatable=0;labelPosition=right;points=[];portConstraint=eastwest;strokeColor=inherit;sketch=1;curveFitting=1;jiggle=2;" vertex="1" parent="JrlWjc0MwSkIItQcnWA1-16">
          <mxGeometry y="52" width="160" height="8" as="geometry" />
        </mxCell>
        <mxCell id="JrlWjc0MwSkIItQcnWA1-19" value="+ Save()" style="text;strokeColor=none;fillColor=none;align=left;verticalAlign=top;spacingLeft=4;spacingRight=4;overflow=hidden;rotatable=0;points=[[0,0.5],[1,0.5]];portConstraint=eastwest;sketch=1;curveFitting=1;jiggle=2;" vertex="1" parent="JrlWjc0MwSkIItQcnWA1-16">
          <mxGeometry y="60" width="160" height="26" as="geometry" />
        </mxCell>
        <mxCell id="JrlWjc0MwSkIItQcnWA1-20" value="" style="endArrow=block;endSize=16;endFill=0;html=1;rounded=0;exitX=0.5;exitY=0;exitDx=0;exitDy=0;sketch=1;curveFitting=1;jiggle=2;" edge="1" parent="1" source="JrlWjc0MwSkIItQcnWA1-12" target="JrlWjc0MwSkIItQcnWA1-10">
          <mxGeometry x="-1" y="120" width="160" relative="1" as="geometry">
            <mxPoint x="40" y="1340" as="sourcePoint" />
            <mxPoint x="200" y="1340" as="targetPoint" />
            <mxPoint as="offset" />
          </mxGeometry>
        </mxCell>
        <mxCell id="JrlWjc0MwSkIItQcnWA1-22" value="" style="endArrow=block;endSize=16;endFill=0;html=1;rounded=0;exitX=0.5;exitY=0;exitDx=0;exitDy=0;sketch=1;curveFitting=1;jiggle=2;" edge="1" parent="1" source="JrlWjc0MwSkIItQcnWA1-16" target="JrlWjc0MwSkIItQcnWA1-10">
          <mxGeometry x="-1" y="160" width="160" relative="1" as="geometry">
            <mxPoint x="70" y="1290" as="sourcePoint" />
            <mxPoint x="230" y="1290" as="targetPoint" />
            <mxPoint as="offset" />
          </mxGeometry>
        </mxCell>
        <mxCell id="JrlWjc0MwSkIItQcnWA1-23" value="" style="endArrow=open;endSize=12;dashed=1;html=1;rounded=0;entryX=1;entryY=0.5;entryDx=0;entryDy=0;exitX=0.5;exitY=0;exitDx=0;exitDy=0;sketch=1;curveFitting=1;jiggle=2;" edge="1" parent="1" source="JrlWjc0MwSkIItQcnWA1-10" target="JrlWjc0MwSkIItQcnWA1-4">
          <mxGeometry x="-0.75" y="120" width="160" relative="1" as="geometry">
            <mxPoint x="160" y="1330" as="sourcePoint" />
            <mxPoint x="320" y="1330" as="targetPoint" />
            <mxPoint as="offset" />
          </mxGeometry>
        </mxCell>
        <mxCell id="JrlWjc0MwSkIItQcnWA1-27" value="&lt;p style=&quot;margin:0px;margin-top:4px;text-align:center;&quot;&gt;&lt;i&gt;&amp;lt;&amp;lt;Interface&amp;gt;&amp;gt;&lt;/i&gt;&lt;br&gt;&lt;b&gt;IImger&lt;/b&gt;&lt;/p&gt;&lt;hr size=&quot;1&quot;&gt;&lt;p style=&quot;margin:0px;margin-left:4px;&quot;&gt;&lt;br&gt;&lt;/p&gt;&lt;hr size=&quot;1&quot;&gt;&lt;p style=&quot;margin:0px;margin-left:4px;&quot;&gt;# GetMatrix() : Color[,]&lt;/p&gt;&lt;p style=&quot;margin:0px;margin-left:4px;&quot;&gt;+ GetImg() : bool&lt;/p&gt;" style="verticalAlign=top;align=left;overflow=fill;fontSize=12;fontFamily=Helvetica;html=1;fillColor=#f8cecc;strokeColor=#b85450;sketch=1;curveFitting=1;jiggle=2;" vertex="1" parent="1">
          <mxGeometry x="40" y="520" width="160" height="120" as="geometry" />
        </mxCell>
        <mxCell id="JrlWjc0MwSkIItQcnWA1-28" value="" style="endArrow=open;endSize=12;dashed=1;html=1;rounded=0;exitX=0.5;exitY=1;exitDx=0;exitDy=0;entryX=0.5;entryY=0;entryDx=0;entryDy=0;sketch=1;curveFitting=1;jiggle=2;" edge="1" parent="1" source="JrlWjc0MwSkIItQcnWA1-27" target="JrlWjc0MwSkIItQcnWA1-1">
          <mxGeometry x="-0.125" y="80" width="160" relative="1" as="geometry">
            <mxPoint x="440" y="580" as="sourcePoint" />
            <mxPoint x="600" y="580" as="targetPoint" />
            <mxPoint as="offset" />
          </mxGeometry>
        </mxCell>
      </root>
    </mxGraphModel>
  </diagram>
</mxfile>
